edu\nikmas_sv\BuilderCustomer.class
edu\nikmas_sv\config\Config.class
edu\nikmas_sv\dao\DictionaryDaoImp.class
edu\nikmas_sv\Main.class
edu\nikmas_sv\dao\DictionaryDao.class
edu\nikmas_sv\domain\Customer.class
edu\nikmas_sv\domain\Ticket.class
edu\nikmas_sv\exception\DaoException.class
edu\nikmas_sv\dao\AdditionCustomerDao.class
edu\nikmas_sv\domain\SeasonTicketStatus.class
edu\nikmas_sv\dao\AdditionCustomerDaoImp.class
